{
	"log": {
		"version": "1.2",
		"creator": {
			"name": "Insomnia REST Client",
			"version": "insomnia.desktop.app:v2021.7.2"
		},
		"entries": [
			{
				"startedDateTime": "2021-12-16T15:20:45.241Z",
				"time": 476.56,
				"request": {
					"method": "POST",
					"url": "http://0.0.0.0:3020",
					"httpVersion": "HTTP/1.1",
					"cookies": [],
					"headers": [
						{
							"name": "Content-Type",
							"value": "application/json"
						},
						{
							"name": "Accept-Encoding",
							"value": "gzip"
						}
					],
					"queryString": [],
					"postData": {
						"mimeType": "application/graphql",
						"text": "{\"query\":\"query getOffers($q: JSON) {\\n\\tgetOffers(q: $q) {\\n\\t\\tmetadata {\\n      page\\n      limit\\n      pageCount\\n      totalCount\\n      sortedFilter\\n      sortedFilterHash\\n    }\\n    records {\\n      vehicleId\\n      offerID\\n      make\\n      model\\n      mileage\\n      power\\n      firstRegistration\\n      variant\\n      fuel\\n      consumptionUnit\\n      consumptionCombined\\n      co2\\n      emissionClass\\n      price\\n      image\\n      monthlyInstallment\\n      gearbox\\n      condition\\n      category\\n      exteriorColor\\n      cubicCapacity\\n      fourWheelDrive\\n      datePublished\\n      supplier\\n      images\\n      vin\\n    }\\n\\t}\\n}\",\"variables\":{\"q\":{}},\"operationName\":\"getOffers\"}",
						"params": []
					},
					"headersSize": -1,
					"bodySize": -1,
					"settingEncodeUrl": true
				},
				"response": {
					"status": 200,
					"statusText": "",
					"httpVersion": "HTTP/1.1",
					"cookies": [],
					"headers": [
						{
							"name": "date",
							"value": "Thu, 16 Dec 2021 15:03:07 GMT"
						},
						{
							"name": "content-type",
							"value": "application/json; charset=utf-8"
						},
						{
							"name": "content-length",
							"value": "19214"
						},
						{
							"name": "vary",
							"value": "Origin"
						},
						{
							"name": "access-control-allow-credentials",
							"value": "true"
						},
						{
							"name": "x-version",
							"value": "1.18.6"
						},
						{
							"name": "etag",
							"value": "W/\"4b0e-d3csOW5GP7jVjLQWTRYQ/OipHno\""
						}
					],
					"content": {
						"size": 19214,
						"mimeType": "application/json; charset=utf-8",
						"text": "{\"data\":{\"getOffers\":{\"metadata\":{\"page\":0,\"limit\":10,\"pageCount\":2307,\"totalCount\":23065,\"sortedFilter\":\"\",\"sortedFilterHash\":\"d41d8cd98f00b204e9800998ecf8427e\"},\"records\":[{\"vehicleId\":\"IM18-0048460:30190126\",\"offerID\":\"6QXFMKU57F2MSJVUZZCWWCZRTYKC3JTN3APPCYZHJKSVVCR1F17F00C76F4YH0Z\",\"make\":\"Opel\",\"model\":\"Insignia\",\"mileage\":19200,\"power\":125,\"firstRegistration\":\"08.2017\",\"variant\":\"Insignia GS 2.0 CDTI Innovation*Leder*Navi*LED*\",\"fuel\":\"DIESEL\",\"consumptionUnit\":\"LITER\",\"consumptionCombined\":5.2,\"co2\":138,\"emissionClass\":\"EURO6\",\"price\":25140,\"image\":\"https://cdn-carpics.instamotion.com/W0VZT6EG1J1030777/gallery/closed_large/W0VZT6EG1J1030777_02.jpg\",\"monthlyInstallment\":142,\"gearbox\":\"AUTOMATIC_GEAR\",\"condition\":\"USED\",\"category\":\"Limousine\",\"exteriorColor\":\"BLUE\",\"cubicCapacity\":1956,\"fourWheelDrive\":false,\"datePublished\":\"2021-02-05T16:44:34.367Z\",\"supplier\":\"IM18-0048460\",\"images\":[\"https://cdn-carpics.instamotion.com/W0VZT6EG1J1030777/gallery/closed_large/W0VZT6EG1J1030777_02.jpg\",\"https://cdn-carpics.instamotion.com/W0VZT6EG1J1030777/gallery/closed_large/W0VZT6EG1J1030777_03.jpg\",\"https://cdn-carpics.instamotion.com/W0VZT6EG1J1030777/gallery/closed_large/W0VZT6EG1J1030777_04.jpg\",\"https://cdn-carpics.instamotion.com/W0VZT6EG1J1030777/gallery/closed_large/W0VZT6EG1J1030777_05.jpg\",\"https://cdn-carpics.instamotion.com/W0VZT6EG1J1030777/gallery/closed_large/W0VZT6EG1J1030777_06.jpg\",\"https://cdn-carpics.instamotion.com/W0VZT6EG1J1030777/gallery/closed_large/W0VZT6EG1J1030777_07.jpg\",\"https://cdn-carpics.instamotion.com/W0VZT6EG1J1030777/gallery/closed_large/W0VZT6EG1J1030777_08.jpg\",\"https://cdn-carpics.instamotion.com/W0VZT6EG1J1030777/gallery/closed_large/W0VZT6EG1J1030777_09.jpg\",\"https://cdn-carpics.instamotion.com/W0VZT6EG1J1030777/gallery/closed_large/W0VZT6EG1J1030777_12.jpg\",\"https://cdn-carpics.instamotion.com/W0VZT6EG1J1030777/gallery/closed_large/W0VZT6EG1J1030777_13.jpg\",\"https://cdn-carpics.instamotion.com/W0VZT6EG1J1030777/gallery/closed_large/W0VZT6EG1J1030777_14.jpg\",\"https://cdn-carpics.instamotion.com/W0VZT6EG1J1030777/gallery/closed_large/W0VZT6EG1J1030777_15.jpg\",\"https://cdn-carpics.instamotion.com/W0VZT6EG1J1030777/gallery/closed_large/W0VZT6EG1J1030777_16.jpg\"],\"vin\":\"W0VZT6EG1J1030777\"},{\"vehicleId\":\"IM18-0046245:5527S531\",\"offerID\":\"Z8MF1WS25FY6C6VU33CPPC1PT7XAMYH43T34UQ9HP9UQ6UR6HYXBWQS39ULYSYQ\",\"make\":\"Volkswagen\",\"model\":\"Golf\",\"mileage\":14097,\"power\":92,\"firstRegistration\":\"04.2018\",\"variant\":\"Golf VII Variant 1.4 TSI Join BMT NAVI ACC EU6\",\"fuel\":\"PETROL\",\"consumptionUnit\":\"LITER\",\"consumptionCombined\":5.2,\"co2\":118,\"emissionClass\":\"EURO6\",\"price\":23990,\"image\":\"https://cdn-carpics.instamotion.com/WVWZZZAUZJP597150/gallery/closed_large/image_01.jpg\",\"monthlyInstallment\":135,\"gearbox\":\"AUTOMATIC_GEAR\",\"condition\":\"USED\",\"category\":\"EstateCar\",\"exteriorColor\":\"BLUE\",\"cubicCapacity\":1395,\"fourWheelDrive\":false,\"datePublished\":\"2021-02-05T18:06:16.513Z\",\"supplier\":\"IM18-0046245\",\"images\":[\"https://cdn-carpics.instamotion.com/WVWZZZAUZJP597150/gallery/closed_large/image_01.jpg\",\"https://cdn-carpics.instamotion.com/WVWZZZAUZJP597150/gallery/closed_large/image_02.jpg\",\"https://cdn-carpics.instamotion.com/WVWZZZAUZJP597150/gallery/closed_large/image_03.jpg\",\"https://cdn-carpics.instamotion.com/WVWZZZAUZJP597150/gallery/closed_large/image_04.jpg\",\"https://cdn-carpics.instamotion.com/WVWZZZAUZJP597150/gallery/closed_large/image_05.jpg\",\"https://cdn-carpics.instamotion.com/WVWZZZAUZJP597150/gallery/closed_large/image_06.jpg\",\"https://cdn-carpics.instamotion.com/WVWZZZAUZJP597150/gallery/closed_large/image_07.jpg\",\"https://cdn-carpics.instamotion.com/WVWZZZAUZJP597150/gallery/closed_large/image_08.jpg\",\"https://cdn-carpics.instamotion.com/WVWZZZAUZJP597150/gallery/closed_large/image_09.jpg\",\"https://cdn-carpics.instamotion.com/WVWZZZAUZJP597150/gallery/closed_large/image_10.jpg\",\"https://cdn-carpics.instamotion.com/WVWZZZAUZJP597150/gallery/closed_large/image_11.jpg\",\"https://cdn-carpics.instamotion.com/WVWZZZAUZJP597150/gallery/closed_large/image_12.jpg\",\"https://cdn-carpics.instamotion.com/WVWZZZAUZJP597150/gallery/closed_large/image_13.jpg\",\"https://cdn-carpics.instamotion.com/WVWZZZAUZJP597150/gallery/closed_large/image_14.jpg\",\"https://cdn-carpics.instamotion.com/WVWZZZAUZJP597150/gallery/closed_large/image_15.jpg\",\"https://cdn-carpics.instamotion.com/WVWZZZAUZJP597150/gallery/closed_large/image_16.jpg\",\"https://cdn-carpics.instamotion.com/WVWZZZAUZJP597150/gallery/closed_large/image_17.jpg\",\"https://cdn-carpics.instamotion.com/WVWZZZAUZJP597150/gallery/closed_large/image_18.jpg\"],\"vin\":\"WVWZZZAUZJP597150\"},{\"vehicleId\":\"IM17-0010413:192797\",\"offerID\":\"11RCR4UY2FLYB4PU00C55C8XFLLC46TMYFN6S64H2LF1WF6ZHMQB0VF2L\",\"make\":\"Volkswagen\",\"model\":\"Passat Variant\",\"mileage\":25900,\"power\":110,\"firstRegistration\":\"06.2018\",\"variant\":\"Passat Variant 1.4 TSI ACT HIGHLINE * BUSINESS-PREMIUM * ACC * LED * NAVI * PARK ASSIST\",\"fuel\":\"PETROL\",\"consumptionUnit\":\"LITER\",\"consumptionCombined\":5.1,\"co2\":119,\"emissionClass\":\"EURO6\",\"price\":27800,\"image\":\"https://cdn-carpics.instamotion.com/WVWZZZ3CZJE192797/gallery/closed_large/image_01.jpg\",\"monthlyInstallment\":156,\"gearbox\":\"MANUAL_GEAR\",\"condition\":\"USED\",\"category\":\"EstateCar\",\"exteriorColor\":\"BLACK\",\"cubicCapacity\":1395,\"fourWheelDrive\":false,\"datePublished\":\"2021-02-05T17:25:08.139Z\",\"supplier\":\"IM17-0010413\",\"images\":[\"https://cdn-carpics.instamotion.com/WVWZZZ3CZJE192797/gallery/closed_large/image_01.jpg\",\"https://cdn-carpics.instamotion.com/WVWZZZ3CZJE192797/gallery/closed_large/image_02.jpg\",\"https://cdn-carpics.instamotion.com/WVWZZZ3CZJE192797/gallery/closed_large/image_03.jpg\",\"https://cdn-carpics.instamotion.com/WVWZZZ3CZJE192797/gallery/closed_large/image_04.jpg\",\"https://cdn-carpics.instamotion.com/WVWZZZ3CZJE192797/gallery/closed_large/image_05.jpg\",\"https://cdn-carpics.instamotion.com/WVWZZZ3CZJE192797/gallery/closed_large/image_06.jpg\",\"https://cdn-carpics.instamotion.com/WVWZZZ3CZJE192797/gallery/closed_large/image_07.jpg\",\"https://cdn-carpics.instamotion.com/WVWZZZ3CZJE192797/gallery/closed_large/image_08.jpg\"],\"vin\":\"WVWZZZ3CZJE192797\"},{\"vehicleId\":\"IM18-0048504:W235464\",\"offerID\":\"X1KC24HJ9F18TYLURRC22CY4TV9CN8U99CQ2T6QHW7BV2HZMSK0UN1T4NA67\",\"make\":\"Volkswagen\",\"model\":\"Golf\",\"mileage\":13286,\"power\":81,\"firstRegistration\":\"04.2018\",\"variant\":\"Golf VII 1.0 TSI Comfortline Bluetooth Klima\",\"fuel\":\"PETROL\",\"consumptionUnit\":\"LITER\",\"consumptionCombined\":4.8,\"co2\":114,\"emissionClass\":\"EURO6\",\"price\":16500,\"image\":\"https://cdn-carpics.instamotion.com/WVWZZZAUZJW235464/gallery/closed_large/image_01.jpg\",\"monthlyInstallment\":94,\"gearbox\":\"MANUAL_GEAR\",\"condition\":\"USED\",\"category\":\"Limousine\",\"exteriorColor\":\"BLUE\",\"cubicCapacity\":999,\"fourWheelDrive\":false,\"datePublished\":\"2021-02-05T18:06:16.700Z\",\"supplier\":\"IM18-0048504\",\"images\":[\"https://cdn-carpics.instamotion.com/WVWZZZAUZJW235464/gallery/closed_large/image_01.jpg\",\"https://cdn-carpics.instamotion.com/WVWZZZAUZJW235464/gallery/closed_large/image_02.jpg\",\"https://cdn-carpics.instamotion.com/WVWZZZAUZJW235464/gallery/closed_large/image_03.jpg\",\"https://cdn-carpics.instamotion.com/WVWZZZAUZJW235464/gallery/closed_large/image_04.jpg\",\"https://cdn-carpics.instamotion.com/WVWZZZAUZJW235464/gallery/closed_large/image_05.jpg\",\"https://cdn-carpics.instamotion.com/WVWZZZAUZJW235464/gallery/closed_large/image_06.jpg\",\"https://cdn-carpics.instamotion.com/WVWZZZAUZJW235464/gallery/closed_large/image_07.jpg\",\"https://cdn-carpics.instamotion.com/WVWZZZAUZJW235464/gallery/closed_large/image_08.jpg\",\"https://cdn-carpics.instamotion.com/WVWZZZAUZJW235464/gallery/closed_large/image_09.jpg\",\"https://cdn-carpics.instamotion.com/WVWZZZAUZJW235464/gallery/closed_large/image_10.jpg\",\"https://cdn-carpics.instamotion.com/WVWZZZAUZJW235464/gallery/closed_large/image_11.jpg\",\"https://cdn-carpics.instamotion.com/WVWZZZAUZJW235464/gallery/closed_large/image_12.jpg\"],\"vin\":\"WVWZZZAUZJW235464\"},{\"vehicleId\":\"IM18-0034366:86-7560\",\"offerID\":\"J7PHYMURQF51C1JU11C44C6KSRLTQ7S05ANZAR4H04CX2AXWUWNBNWU0QA22\",\"make\":\"Volkswagen\",\"model\":\"T-Cross\",\"mileage\":null,\"power\":70,\"firstRegistration\":null,\"variant\":\"T-Cross 1.0 TSI OPF FSE USB KLIMA PDC EURO6\",\"fuel\":\"PETROL\",\"consumptionUnit\":\"LITER\",\"consumptionCombined\":4.9,\"co2\":112,\"emissionClass\":\"EURO6\",\"price\":19600,\"image\":\"https://cdn-carpics.instamotion.com/WVGZZZC1ZKY057560/gallery/closed_large/image_01.jpg\",\"monthlyInstallment\":111,\"gearbox\":\"MANUAL_GEAR\",\"condition\":\"NEW\",\"category\":\"OffRoad\",\"exteriorColor\":\"RED\",\"cubicCapacity\":999,\"fourWheelDrive\":false,\"datePublished\":\"2021-02-05T16:44:34.980Z\",\"supplier\":\"IM18-0034366\",\"images\":[\"https://cdn-carpics.instamotion.com/WVGZZZC1ZKY057560/gallery/closed_large/image_01.jpg\",\"https://cdn-carpics.instamotion.com/WVGZZZC1ZKY057560/gallery/closed_large/image_02.jpg\",\"https://cdn-carpics.instamotion.com/WVGZZZC1ZKY057560/gallery/closed_large/image_03.jpg\",\"https://cdn-carpics.instamotion.com/WVGZZZC1ZKY057560/gallery/closed_large/image_04.jpg\",\"https://cdn-carpics.instamotion.com/WVGZZZC1ZKY057560/gallery/closed_large/image_05.jpg\",\"https://cdn-carpics.instamotion.com/WVGZZZC1ZKY057560/gallery/closed_large/image_06.jpg\",\"https://cdn-carpics.instamotion.com/WVGZZZC1ZKY057560/gallery/closed_large/image_07.jpg\",\"https://cdn-carpics.instamotion.com/WVGZZZC1ZKY057560/gallery/closed_large/image_08.jpg\",\"https://cdn-carpics.instamotion.com/WVGZZZC1ZKY057560/gallery/closed_large/image_09.jpg\",\"https://cdn-carpics.instamotion.com/WVGZZZC1ZKY057560/gallery/closed_large/image_10.jpg\",\"https://cdn-carpics.instamotion.com/WVGZZZC1ZKY057560/gallery/closed_large/image_11.jpg\",\"https://cdn-carpics.instamotion.com/WVGZZZC1ZKY057560/gallery/closed_large/image_12.jpg\",\"https://cdn-carpics.instamotion.com/WVGZZZC1ZKY057560/gallery/closed_large/image_13.jpg\",\"https://cdn-carpics.instamotion.com/WVGZZZC1ZKY057560/gallery/closed_large/image_14.jpg\",\"https://cdn-carpics.instamotion.com/WVGZZZC1ZKY057560/gallery/closed_large/image_15.jpg\",\"https://cdn-carpics.instamotion.com/WVGZZZC1ZKY057560/gallery/closed_large/image_16.jpg\",\"https://cdn-carpics.instamotion.com/WVGZZZC1ZKY057560/gallery/closed_large/image_17.jpg\",\"https://cdn-carpics.instamotion.com/WVGZZZC1ZKY057560/gallery/closed_large/image_18.jpg\",\"https://cdn-carpics.instamotion.com/WVGZZZC1ZKY057560/gallery/closed_large/image_19.jpg\"],\"vin\":\"WVGZZZC1ZKY057560\"},{\"vehicleId\":\"IM17-0010262:717423\",\"offerID\":\"NV9FXJUMJFZNBVZUWWC00C28FRRC30HVQALXHMZHVRB8JF2RB9PT4RHMN\",\"make\":\"Suzuki\",\"model\":\"Vitara\",\"mileage\":2,\"power\":82,\"firstRegistration\":\"08.2019\",\"variant\":\"Vitara 1.0 BoosterJet Aut. GL+ Navi Kamera SHZ Klimaaut Temp Nebel LMF Bluet USB\",\"fuel\":\"PETROL\",\"consumptionUnit\":\"LITER\",\"consumptionCombined\":5.7,\"co2\":129,\"emissionClass\":\"EURO6\",\"price\":18004,\"image\":\"https://cdn-carpics.instamotion.com/TSMLYD01S00717423/gallery/closed_large/image_01.jpg\",\"monthlyInstallment\":102,\"gearbox\":\"AUTOMATIC_GEAR\",\"condition\":\"USED\",\"category\":\"OffRoad\",\"exteriorColor\":\"WHITE\",\"cubicCapacity\":998,\"fourWheelDrive\":false,\"datePublished\":\"2020-03-20T12:24:20.520Z\",\"supplier\":\"IM17-0010262\",\"images\":[\"https://cdn-carpics.instamotion.com/TSMLYD01S00717423/gallery/closed_large/image_01.jpg\",\"https://cdn-carpics.instamotion.com/TSMLYD01S00717423/gallery/closed_large/image_02.jpg\",\"https://cdn-carpics.instamotion.com/TSMLYD01S00717423/gallery/closed_large/image_03.jpg\",\"https://cdn-carpics.instamotion.com/TSMLYD01S00717423/gallery/closed_large/image_04.jpg\",\"https://cdn-carpics.instamotion.com/TSMLYD01S00717423/gallery/closed_large/image_05.jpg\",\"https://cdn-carpics.instamotion.com/TSMLYD01S00717423/gallery/closed_large/image_06.jpg\",\"https://cdn-carpics.instamotion.com/TSMLYD01S00717423/gallery/closed_large/image_07.jpg\",\"https://cdn-carpics.instamotion.com/TSMLYD01S00717423/gallery/closed_large/image_08.jpg\"],\"vin\":\"TSMLYD01S00717423\"},{\"vehicleId\":\"IM18-0040507:085300\",\"offerID\":\"L4RUY9UMJF90C6JU11CLLC2JT66C2PU66CV4BZ5HMMCW4C4QUPZS11CVV\",\"make\":\"MINI\",\"model\":\"John Cooper Works\",\"mileage\":null,\"power\":170,\"firstRegistration\":null,\"variant\":\"John Cooper Works 3-Türer\",\"fuel\":\"PETROL\",\"consumptionUnit\":\"LITER\",\"consumptionCombined\":6.1,\"co2\":140,\"emissionClass\":\"EURO6\",\"price\":42130,\"image\":\"https://cdn-carpics.instamotion.com/WMWXR910X02L23660/gallery/closed_large/image_01.jpg\",\"monthlyInstallment\":235,\"gearbox\":\"AUTOMATIC_GEAR\",\"condition\":\"NEW\",\"category\":\"Limousine\",\"exteriorColor\":\"RED\",\"cubicCapacity\":1998,\"fourWheelDrive\":false,\"datePublished\":\"2021-02-05T18:06:16.443Z\",\"supplier\":\"IM18-0040507\",\"images\":[\"https://cdn-carpics.instamotion.com/WMWXR910X02L23660/gallery/closed_large/image_01.jpg\",\"https://cdn-carpics.instamotion.com/WMWXR910X02L23660/gallery/closed_large/image_02.jpg\",\"https://cdn-carpics.instamotion.com/WMWXR910X02L23660/gallery/closed_large/image_03.jpg\",\"https://cdn-carpics.instamotion.com/WMWXR910X02L23660/gallery/closed_large/image_04.jpg\",\"https://cdn-carpics.instamotion.com/WMWXR910X02L23660/gallery/closed_large/image_05.jpg\",\"https://cdn-carpics.instamotion.com/WMWXR910X02L23660/gallery/closed_large/image_06.jpg\",\"https://cdn-carpics.instamotion.com/WMWXR910X02L23660/gallery/closed_large/image_07.jpg\",\"https://cdn-carpics.instamotion.com/WMWXR910X02L23660/gallery/closed_large/image_08.jpg\",\"https://cdn-carpics.instamotion.com/WMWXR910X02L23660/gallery/closed_large/image_09.jpg\",\"https://cdn-carpics.instamotion.com/WMWXR910X02L23660/gallery/closed_large/image_10.jpg\"],\"vin\":\"WMWXR910X02L23660\"},{\"vehicleId\":\"IM17-0010391:210823\",\"offerID\":\"0ZWFK5FRYF1QSX3UMMC99C1KFNNC8RSKPFY6F6RH83HP1F00CMXCXVHRL\",\"make\":\"Seat\",\"model\":\"Ibiza\",\"mileage\":10,\"power\":85,\"firstRegistration\":\"08.2019\",\"variant\":\"Ibiza 1.0 TSI DSG FR, 17-Zoll, ACC, virtualCockpit, Climatronic, Bluetooth\",\"fuel\":\"PETROL\",\"consumptionUnit\":\"LITER\",\"consumptionCombined\":4.9,\"co2\":112,\"emissionClass\":\"EURO6\",\"price\":17995,\"image\":\"https://cdn-carpics.instamotion.com/VSSZZZKJZKR210823/gallery/closed_large/image_01.jpg\",\"monthlyInstallment\":102,\"gearbox\":\"AUTOMATIC_GEAR\",\"condition\":\"USED\",\"category\":\"SmallCar\",\"exteriorColor\":\"WHITE\",\"cubicCapacity\":999,\"fourWheelDrive\":false,\"datePublished\":\"2021-02-05T18:06:16.860Z\",\"supplier\":\"IM17-0010391\",\"images\":[\"https://cdn-carpics.instamotion.com/VSSZZZKJZKR210823/gallery/closed_large/image_01.jpg\",\"https://cdn-carpics.instamotion.com/VSSZZZKJZKR210823/gallery/closed_large/image_02.jpg\",\"https://cdn-carpics.instamotion.com/VSSZZZKJZKR210823/gallery/closed_large/image_03.jpg\",\"https://cdn-carpics.instamotion.com/VSSZZZKJZKR210823/gallery/closed_large/image_05.jpg\",\"https://cdn-carpics.instamotion.com/VSSZZZKJZKR210823/gallery/closed_large/image_11.jpg\"],\"vin\":\"VSSZZZKJZKR210823\"},{\"vehicleId\":\"IM19-0051603:32497184\",\"offerID\":\"PVZFX0UY4F6QCQ0U33CWWCQKU28FQZA77CVLSXZHMPSQZH18TPQFWKBLZF92C2W\",\"make\":\"Ford\",\"model\":\"S-Max\",\"mileage\":18108,\"power\":140,\"firstRegistration\":\"10.2018\",\"variant\":\"S-Max 2.0 EcoBlue Business AWD StartStopp Navi\",\"fuel\":\"DIESEL\",\"consumptionUnit\":\"LITER\",\"consumptionCombined\":5.8,\"co2\":154,\"emissionClass\":\"\",\"price\":34090,\"image\":\"https://cdn-carpics.instamotion.com/WF0JXXWPCJJP34839/gallery/closed_large/image_01.jpg\",\"monthlyInstallment\":191,\"gearbox\":\"AUTOMATIC_GEAR\",\"condition\":\"USED\",\"category\":\"Van\",\"exteriorColor\":\"BLACK\",\"cubicCapacity\":1997,\"fourWheelDrive\":true,\"datePublished\":\"2021-02-05T18:06:16.756Z\",\"supplier\":\"IM19-0051603\",\"images\":[\"https://cdn-carpics.instamotion.com/WF0JXXWPCJJP34839/gallery/closed_large/image_01.jpg\",\"https://cdn-carpics.instamotion.com/WF0JXXWPCJJP34839/gallery/closed_large/image_02.jpg\",\"https://cdn-carpics.instamotion.com/WF0JXXWPCJJP34839/gallery/closed_large/image_03.jpg\",\"https://cdn-carpics.instamotion.com/WF0JXXWPCJJP34839/gallery/closed_large/image_04.jpg\",\"https://cdn-carpics.instamotion.com/WF0JXXWPCJJP34839/gallery/closed_large/image_05.jpg\",\"https://cdn-carpics.instamotion.com/WF0JXXWPCJJP34839/gallery/closed_large/image_06.jpg\",\"https://cdn-carpics.instamotion.com/WF0JXXWPCJJP34839/gallery/closed_large/image_07.jpg\",\"https://cdn-carpics.instamotion.com/WF0JXXWPCJJP34839/gallery/closed_large/image_08.jpg\",\"https://cdn-carpics.instamotion.com/WF0JXXWPCJJP34839/gallery/closed_large/image_09.jpg\",\"https://cdn-carpics.instamotion.com/WF0JXXWPCJJP34839/gallery/closed_large/image_10.jpg\",\"https://cdn-carpics.instamotion.com/WF0JXXWPCJJP34839/gallery/closed_large/image_11.jpg\",\"https://cdn-carpics.instamotion.com/WF0JXXWPCJJP34839/gallery/closed_large/image_12.jpg\",\"https://cdn-carpics.instamotion.com/WF0JXXWPCJJP34839/gallery/closed_large/image_13.jpg\",\"https://cdn-carpics.instamotion.com/WF0JXXWPCJJP34839/gallery/closed_large/image_14.jpg\",\"https://cdn-carpics.instamotion.com/WF0JXXWPCJJP34839/gallery/closed_large/image_15.jpg\",\"https://cdn-carpics.instamotion.com/WF0JXXWPCJJP34839/gallery/closed_large/image_16.jpg\",\"https://cdn-carpics.instamotion.com/WF0JXXWPCJJP34839/gallery/closed_large/image_17.jpg\",\"https://cdn-carpics.instamotion.com/WF0JXXWPCJJP34839/gallery/closed_large/image_18.jpg\",\"https://cdn-carpics.instamotion.com/WF0JXXWPCJJP34839/gallery/closed_large/image_19.jpg\",\"https://cdn-carpics.instamotion.com/WF0JXXWPCJJP34839/gallery/closed_large/image_20.jpg\"],\"vin\":\"WF0JXXWPCJJP34839\"},{\"vehicleId\":\"IM17-0020947:337713\",\"offerID\":\"3ZQFQJU8XF3QF1YU99CMMC5ZHKKCJPFVMTK9BP7HV2SMQS7JB2QB6ZF5Q\",\"make\":\"Nissan\",\"model\":\"Micra\",\"mileage\":1,\"power\":52,\"firstRegistration\":\"09.2018\",\"variant\":\"Micra Visia Plus 1.0 LED-Tag Klima NSW Safety Pack\",\"fuel\":\"PETROL\",\"consumptionUnit\":\"LITER\",\"consumptionCombined\":5.2,\"co2\":121,\"emissionClass\":\"\",\"price\":11480,\"image\":\"https://cdn-carpics.instamotion.com/VNVK1400161429786/gallery/closed_large/image_01.jpg\",\"monthlyInstallment\":66,\"gearbox\":\"MANUAL_GEAR\",\"condition\":\"USED\",\"category\":\"SmallCar\",\"exteriorColor\":\"BLACK\",\"cubicCapacity\":999,\"fourWheelDrive\":false,\"datePublished\":\"2020-03-06T00:09:30.958Z\",\"supplier\":\"IM17-0020947\",\"images\":[\"https://cdn-carpics.instamotion.com/VNVK1400161429786/gallery/closed_large/image_01.jpg\",\"https://cdn-carpics.instamotion.com/VNVK1400161429786/gallery/closed_large/image_02.jpg\",\"https://cdn-carpics.instamotion.com/VNVK1400161429786/gallery/closed_large/image_03.jpg\",\"https://cdn-carpics.instamotion.com/VNVK1400161429786/gallery/closed_large/image_04.jpg\",\"https://cdn-carpics.instamotion.com/VNVK1400161429786/gallery/closed_large/image_05.jpg\",\"https://cdn-carpics.instamotion.com/VNVK1400161429786/gallery/closed_large/image_06.jpg\",\"https://cdn-carpics.instamotion.com/VNVK1400161429786/gallery/closed_large/image_07.jpg\",\"https://cdn-carpics.instamotion.com/VNVK1400161429786/gallery/closed_large/image_08.jpg\",\"https://cdn-carpics.instamotion.com/VNVK1400161429786/gallery/closed_large/image_09.jpg\",\"https://cdn-carpics.instamotion.com/VNVK1400161429786/gallery/closed_large/image_10.jpg\",\"https://cdn-carpics.instamotion.com/VNVK1400161429786/gallery/closed_large/image_11.jpg\",\"https://cdn-carpics.instamotion.com/VNVK1400161429786/gallery/closed_large/image_12.jpg\",\"https://cdn-carpics.instamotion.com/VNVK1400161429786/gallery/closed_large/image_13.jpg\",\"https://cdn-carpics.instamotion.com/VNVK1400161429786/gallery/closed_large/image_14.jpg\"],\"vin\":\"VNVK1400361481260\"}]}}}\n"
					},
					"redirectURL": "",
					"headersSize": -1,
					"bodySize": -1
				},
				"cache": {},
				"timings": {
					"blocked": -1,
					"dns": -1,
					"connect": -1,
					"send": 0,
					"wait": 476.56,
					"receive": 0,
					"ssl": -1
				},
				"comment": "Get Offers"
			}
		]
	}
}
